('/home/miguel/Documents/curso_python2022/proyectos/dist/biblioteca',
 False,
 False,
 False,
 None,
 None,
 False,
 False,
 None,
 True,
 True,
 None,
 None,
 None,
 '/home/miguel/Documents/curso_python2022/proyectos/build/biblioteca/biblioteca.pkg',
 [('PYZ-00.pyz',
   '/home/miguel/Documents/curso_python2022/proyectos/build/biblioteca/PYZ-00.pyz',
   'PYZ'),
  ('lib-dynload/_struct',
   '/usr/lib64/python3.9/lib-dynload/_struct.cpython-39-x86_64-linux-gnu.so',
   'EXTENSION'),
  ('lib-dynload/zlib',
   '/usr/lib64/python3.9/lib-dynload/zlib.cpython-39-x86_64-linux-gnu.so',
   'EXTENSION'),
  ('struct',
   '/home/miguel/Documents/curso_python2022/proyectos/build/biblioteca/localpycos/struct.pyo',
   'PYMODULE'),
  ('pyimod01_os_path',
   '/home/miguel/.local/lib/python3.9/site-packages/PyInstaller/loader/pyimod01_os_path.pyc',
   'PYMODULE'),
  ('pyimod02_archive',
   '/home/miguel/.local/lib/python3.9/site-packages/PyInstaller/loader/pyimod02_archive.pyc',
   'PYMODULE'),
  ('pyimod03_importers',
   '/home/miguel/.local/lib/python3.9/site-packages/PyInstaller/loader/pyimod03_importers.pyc',
   'PYMODULE'),
  ('pyimod04_ctypes',
   '/home/miguel/.local/lib/python3.9/site-packages/PyInstaller/loader/pyimod04_ctypes.pyc',
   'PYMODULE'),
  ('pyiboot01_bootstrap',
   '/home/miguel/.local/lib/python3.9/site-packages/PyInstaller/loader/pyiboot01_bootstrap.py',
   'PYSOURCE'),
  ('pyi_rth_subprocess',
   '/home/miguel/.local/lib/python3.9/site-packages/PyInstaller/hooks/rthooks/pyi_rth_subprocess.py',
   'PYSOURCE'),
  ('pyi_rth_pkgutil',
   '/home/miguel/.local/lib/python3.9/site-packages/PyInstaller/hooks/rthooks/pyi_rth_pkgutil.py',
   'PYSOURCE'),
  ('pyi_rth_multiprocessing',
   '/home/miguel/.local/lib/python3.9/site-packages/PyInstaller/hooks/rthooks/pyi_rth_multiprocessing.py',
   'PYSOURCE'),
  ('pyi_rth_inspect',
   '/home/miguel/.local/lib/python3.9/site-packages/PyInstaller/hooks/rthooks/pyi_rth_inspect.py',
   'PYSOURCE'),
  ('pyi_rth__tkinter',
   '/home/miguel/.local/lib/python3.9/site-packages/PyInstaller/hooks/rthooks/pyi_rth__tkinter.py',
   'PYSOURCE'),
  ('biblioteca',
   '/home/miguel/Documents/curso_python2022/proyectos/biblioteca.py',
   'PYSOURCE'),
  ('libpython3.9.so.1.0', '/lib64/libpython3.9.so.1.0', 'BINARY'),
  ('lib-dynload/math',
   '/usr/lib64/python3.9/lib-dynload/math.cpython-39-x86_64-linux-gnu.so',
   'EXTENSION'),
  ('lib-dynload/select',
   '/usr/lib64/python3.9/lib-dynload/select.cpython-39-x86_64-linux-gnu.so',
   'EXTENSION'),
  ('lib-dynload/_posixsubprocess',
   '/usr/lib64/python3.9/lib-dynload/_posixsubprocess.cpython-39-x86_64-linux-gnu.so',
   'EXTENSION'),
  ('lib-dynload/grp',
   '/usr/lib64/python3.9/lib-dynload/grp.cpython-39-x86_64-linux-gnu.so',
   'EXTENSION'),
  ('lib-dynload/_datetime',
   '/usr/lib64/python3.9/lib-dynload/_datetime.cpython-39-x86_64-linux-gnu.so',
   'EXTENSION'),
  ('lib-dynload/unicodedata',
   '/usr/lib64/python3.9/lib-dynload/unicodedata.cpython-39-x86_64-linux-gnu.so',
   'EXTENSION'),
  ('lib-dynload/array',
   '/usr/lib64/python3.9/lib-dynload/array.cpython-39-x86_64-linux-gnu.so',
   'EXTENSION'),
  ('lib-dynload/_socket',
   '/usr/lib64/python3.9/lib-dynload/_socket.cpython-39-x86_64-linux-gnu.so',
   'EXTENSION'),
  ('lib-dynload/_csv',
   '/usr/lib64/python3.9/lib-dynload/_csv.cpython-39-x86_64-linux-gnu.so',
   'EXTENSION'),
  ('lib-dynload/binascii',
   '/usr/lib64/python3.9/lib-dynload/binascii.cpython-39-x86_64-linux-gnu.so',
   'EXTENSION'),
  ('lib-dynload/_lzma',
   '/usr/lib64/python3.9/lib-dynload/_lzma.cpython-39-x86_64-linux-gnu.so',
   'EXTENSION'),
  ('lib-dynload/_bz2',
   '/usr/lib64/python3.9/lib-dynload/_bz2.cpython-39-x86_64-linux-gnu.so',
   'EXTENSION'),
  ('lib-dynload/resource',
   '/usr/lib64/python3.9/lib-dynload/resource.cpython-39-x86_64-linux-gnu.so',
   'EXTENSION'),
  ('lib-dynload/_opcode',
   '/usr/lib64/python3.9/lib-dynload/_opcode.cpython-39-x86_64-linux-gnu.so',
   'EXTENSION'),
  ('lib-dynload/_posixshmem',
   '/usr/lib64/python3.9/lib-dynload/_posixshmem.cpython-39-x86_64-linux-gnu.so',
   'EXTENSION'),
  ('lib-dynload/_multiprocessing',
   '/usr/lib64/python3.9/lib-dynload/_multiprocessing.cpython-39-x86_64-linux-gnu.so',
   'EXTENSION'),
  ('lib-dynload/pyexpat',
   '/usr/lib64/python3.9/lib-dynload/pyexpat.cpython-39-x86_64-linux-gnu.so',
   'EXTENSION'),
  ('lib-dynload/termios',
   '/usr/lib64/python3.9/lib-dynload/termios.cpython-39-x86_64-linux-gnu.so',
   'EXTENSION'),
  ('lib-dynload/_ssl',
   '/usr/lib64/python3.9/lib-dynload/_ssl.cpython-39-x86_64-linux-gnu.so',
   'EXTENSION'),
  ('lib-dynload/_hashlib',
   '/usr/lib64/python3.9/lib-dynload/_hashlib.cpython-39-x86_64-linux-gnu.so',
   'EXTENSION'),
  ('lib-dynload/_sha3',
   '/usr/lib64/python3.9/lib-dynload/_sha3.cpython-39-x86_64-linux-gnu.so',
   'EXTENSION'),
  ('lib-dynload/_blake2',
   '/usr/lib64/python3.9/lib-dynload/_blake2.cpython-39-x86_64-linux-gnu.so',
   'EXTENSION'),
  ('lib-dynload/_sha512',
   '/usr/lib64/python3.9/lib-dynload/_sha512.cpython-39-x86_64-linux-gnu.so',
   'EXTENSION'),
  ('lib-dynload/_sha256',
   '/usr/lib64/python3.9/lib-dynload/_sha256.cpython-39-x86_64-linux-gnu.so',
   'EXTENSION'),
  ('lib-dynload/_md5',
   '/usr/lib64/python3.9/lib-dynload/_md5.cpython-39-x86_64-linux-gnu.so',
   'EXTENSION'),
  ('lib-dynload/_sha1',
   '/usr/lib64/python3.9/lib-dynload/_sha1.cpython-39-x86_64-linux-gnu.so',
   'EXTENSION'),
  ('lib-dynload/_bisect',
   '/usr/lib64/python3.9/lib-dynload/_bisect.cpython-39-x86_64-linux-gnu.so',
   'EXTENSION'),
  ('lib-dynload/_contextvars',
   '/usr/lib64/python3.9/lib-dynload/_contextvars.cpython-39-x86_64-linux-gnu.so',
   'EXTENSION'),
  ('lib-dynload/_decimal',
   '/usr/lib64/python3.9/lib-dynload/_decimal.cpython-39-x86_64-linux-gnu.so',
   'EXTENSION'),
  ('lib-dynload/_queue',
   '/usr/lib64/python3.9/lib-dynload/_queue.cpython-39-x86_64-linux-gnu.so',
   'EXTENSION'),
  ('lib-dynload/mmap',
   '/usr/lib64/python3.9/lib-dynload/mmap.cpython-39-x86_64-linux-gnu.so',
   'EXTENSION'),
  ('lib-dynload/_asyncio',
   '/usr/lib64/python3.9/lib-dynload/_asyncio.cpython-39-x86_64-linux-gnu.so',
   'EXTENSION'),
  ('lib-dynload/readline',
   '/usr/lib64/python3.9/lib-dynload/readline.cpython-39-x86_64-linux-gnu.so',
   'EXTENSION'),
  ('lib-dynload/_pickle',
   '/usr/lib64/python3.9/lib-dynload/_pickle.cpython-39-x86_64-linux-gnu.so',
   'EXTENSION'),
  ('lib-dynload/_ctypes',
   '/usr/lib64/python3.9/lib-dynload/_ctypes.cpython-39-x86_64-linux-gnu.so',
   'EXTENSION'),
  ('lib-dynload/_multibytecodec',
   '/usr/lib64/python3.9/lib-dynload/_multibytecodec.cpython-39-x86_64-linux-gnu.so',
   'EXTENSION'),
  ('lib-dynload/_codecs_jp',
   '/usr/lib64/python3.9/lib-dynload/_codecs_jp.cpython-39-x86_64-linux-gnu.so',
   'EXTENSION'),
  ('lib-dynload/_codecs_iso2022',
   '/usr/lib64/python3.9/lib-dynload/_codecs_iso2022.cpython-39-x86_64-linux-gnu.so',
   'EXTENSION'),
  ('lib-dynload/_codecs_cn',
   '/usr/lib64/python3.9/lib-dynload/_codecs_cn.cpython-39-x86_64-linux-gnu.so',
   'EXTENSION'),
  ('lib-dynload/_codecs_hk',
   '/usr/lib64/python3.9/lib-dynload/_codecs_hk.cpython-39-x86_64-linux-gnu.so',
   'EXTENSION'),
  ('lib-dynload/_codecs_kr',
   '/usr/lib64/python3.9/lib-dynload/_codecs_kr.cpython-39-x86_64-linux-gnu.so',
   'EXTENSION'),
  ('lib-dynload/_codecs_tw',
   '/usr/lib64/python3.9/lib-dynload/_codecs_tw.cpython-39-x86_64-linux-gnu.so',
   'EXTENSION'),
  ('lib-dynload/_heapq',
   '/usr/lib64/python3.9/lib-dynload/_heapq.cpython-39-x86_64-linux-gnu.so',
   'EXTENSION'),
  ('lib-dynload/_sqlite3',
   '/usr/lib64/python3.9/lib-dynload/_sqlite3.cpython-39-x86_64-linux-gnu.so',
   'EXTENSION'),
  ('lib-dynload/_tkinter',
   '/usr/lib64/python3.9/lib-dynload/_tkinter.cpython-39-x86_64-linux-gnu.so',
   'EXTENSION'),
  ('lib-dynload/_statistics',
   '/usr/lib64/python3.9/lib-dynload/_statistics.cpython-39-x86_64-linux-gnu.so',
   'EXTENSION'),
  ('lib-dynload/_random',
   '/usr/lib64/python3.9/lib-dynload/_random.cpython-39-x86_64-linux-gnu.so',
   'EXTENSION'),
  ('libz.so.1', '/lib64/libz.so.1', 'BINARY'),
  ('liblzma.so.5', '/lib64/liblzma.so.5', 'BINARY'),
  ('libbz2.so.1', '/lib64/libbz2.so.1', 'BINARY'),
  ('libexpat.so.1', '/lib64/libexpat.so.1', 'BINARY'),
  ('libcrypto.so.1.1', '/lib64/libcrypto.so.1.1', 'BINARY'),
  ('libssl.so.1.1', '/lib64/libssl.so.1.1', 'BINARY'),
  ('libtinfo.so.6', '/lib64/libtinfo.so.6', 'BINARY'),
  ('libreadline.so.8', '/lib64/libreadline.so.8', 'BINARY'),
  ('libffi.so.6', '/lib64/libffi.so.6', 'BINARY'),
  ('libsqlite3.so.0', '/lib64/libsqlite3.so.0', 'BINARY'),
  ('libXrender.so.1', '/lib64/libXrender.so.1', 'BINARY'),
  ('libX11.so.6', '/lib64/libX11.so.6', 'BINARY'),
  ('libtk8.6.so', '/lib64/libtk8.6.so', 'BINARY'),
  ('libharfbuzz.so.0', '/lib64/libharfbuzz.so.0', 'BINARY'),
  ('libpng16.so.16', '/lib64/libpng16.so.16', 'BINARY'),
  ('libxml2.so.2', '/lib64/libxml2.so.2', 'BINARY'),
  ('libglib-2.0.so.0', '/lib64/libglib-2.0.so.0', 'BINARY'),
  ('libpcre.so.1', '/lib64/libpcre.so.1', 'BINARY'),
  ('libbrotlidec.so.1', '/lib64/libbrotlidec.so.1', 'BINARY'),
  ('libfontconfig.so.1', '/lib64/libfontconfig.so.1', 'BINARY'),
  ('libXau.so.6', '/lib64/libXau.so.6', 'BINARY'),
  ('libfreetype.so.6', '/lib64/libfreetype.so.6', 'BINARY'),
  ('libbrotlicommon.so.1', '/lib64/libbrotlicommon.so.1', 'BINARY'),
  ('libgraphite2.so.3', '/lib64/libgraphite2.so.3', 'BINARY'),
  ('libXft.so.2', '/lib64/libXft.so.2', 'BINARY'),
  ('libtcl8.6.so', '/lib64/libtcl8.6.so', 'BINARY'),
  ('base_library.zip',
   '/home/miguel/Documents/curso_python2022/proyectos/build/biblioteca/base_library.zip',
   'DATA'),
  ('tcl/msgs/th.msg', '/usr/share/tcl8.6/msgs/th.msg', 'DATA'),
  ('tcl/msgs/ar_jo.msg', '/usr/share/tcl8.6/msgs/ar_jo.msg', 'DATA'),
  ('tk/ttk/defaults.tcl', '/usr/share/tk8.6/ttk/defaults.tcl', 'DATA'),
  ('tcl/encoding/euc-jp.enc', '/usr/share/tcl8.6/encoding/euc-jp.enc', 'DATA'),
  ('tcl/msgs/ar_in.msg', '/usr/share/tcl8.6/msgs/ar_in.msg', 'DATA'),
  ('tk/msgs/el.msg', '/usr/share/tk8.6/msgs/el.msg', 'DATA'),
  ('tk/ttk/vistaTheme.tcl', '/usr/share/tk8.6/ttk/vistaTheme.tcl', 'DATA'),
  ('tcl/encoding/iso2022.enc',
   '/usr/share/tcl8.6/encoding/iso2022.enc',
   'DATA'),
  ('tcl/msgs/zh_hk.msg', '/usr/share/tcl8.6/msgs/zh_hk.msg', 'DATA'),
  ('tcl/encoding/dingbats.enc',
   '/usr/share/tcl8.6/encoding/dingbats.enc',
   'DATA'),
  ('tcl/word.tcl', '/usr/share/tcl8.6/word.tcl', 'DATA'),
  ('tcl/encoding/cp874.enc', '/usr/share/tcl8.6/encoding/cp874.enc', 'DATA'),
  ('tcl/msgs/fa_ir.msg', '/usr/share/tcl8.6/msgs/fa_ir.msg', 'DATA'),
  ('tk/ttk/combobox.tcl', '/usr/share/tk8.6/ttk/combobox.tcl', 'DATA'),
  ('tk/button.tcl', '/usr/share/tk8.6/button.tcl', 'DATA'),
  ('tcl/auto.tcl', '/usr/share/tcl8.6/auto.tcl', 'DATA'),
  ('tcl/encoding/koi8-r.enc', '/usr/share/tcl8.6/encoding/koi8-r.enc', 'DATA'),
  ('tcl/msgs/el.msg', '/usr/share/tcl8.6/msgs/el.msg', 'DATA'),
  ('tk/text.tcl', '/usr/share/tk8.6/text.tcl', 'DATA'),
  ('tcl/encoding/cp1250.enc', '/usr/share/tcl8.6/encoding/cp1250.enc', 'DATA'),
  ('tcl/encoding/tis-620.enc',
   '/usr/share/tcl8.6/encoding/tis-620.enc',
   'DATA'),
  ('tcl/msgs/es_uy.msg', '/usr/share/tcl8.6/msgs/es_uy.msg', 'DATA'),
  ('tcl/msgs/en_zw.msg', '/usr/share/tcl8.6/msgs/en_zw.msg', 'DATA'),
  ('tcl/msgs/fi.msg', '/usr/share/tcl8.6/msgs/fi.msg', 'DATA'),
  ('tk/ttk/winTheme.tcl', '/usr/share/tk8.6/ttk/winTheme.tcl', 'DATA'),
  ('tcl/msgs/zh_tw.msg', '/usr/share/tcl8.6/msgs/zh_tw.msg', 'DATA'),
  ('tcl/msgs/id.msg', '/usr/share/tcl8.6/msgs/id.msg', 'DATA'),
  ('tcl/msgs/lv.msg', '/usr/share/tcl8.6/msgs/lv.msg', 'DATA'),
  ('tcl/msgs/sh.msg', '/usr/share/tcl8.6/msgs/sh.msg', 'DATA'),
  ('tcl/msgs/en_hk.msg', '/usr/share/tcl8.6/msgs/en_hk.msg', 'DATA'),
  ('tcl/msgs/en_sg.msg', '/usr/share/tcl8.6/msgs/en_sg.msg', 'DATA'),
  ('tcl/encoding/macCentEuro.enc',
   '/usr/share/tcl8.6/encoding/macCentEuro.enc',
   'DATA'),
  ('tcl/msgs/mr_in.msg', '/usr/share/tcl8.6/msgs/mr_in.msg', 'DATA'),
  ('tcl/msgs/cs.msg', '/usr/share/tcl8.6/msgs/cs.msg', 'DATA'),
  ('tcl/msgs/vi.msg', '/usr/share/tcl8.6/msgs/vi.msg', 'DATA'),
  ('tcl/encoding/cp866.enc', '/usr/share/tcl8.6/encoding/cp866.enc', 'DATA'),
  ('tcl/msgs/is.msg', '/usr/share/tcl8.6/msgs/is.msg', 'DATA'),
  ('tcl/msgs/es_pe.msg', '/usr/share/tcl8.6/msgs/es_pe.msg', 'DATA'),
  ('tcl/encoding/iso8859-5.enc',
   '/usr/share/tcl8.6/encoding/iso8859-5.enc',
   'DATA'),
  ('tk/ttk/classicTheme.tcl', '/usr/share/tk8.6/ttk/classicTheme.tcl', 'DATA'),
  ('tcl/msgs/id_id.msg', '/usr/share/tcl8.6/msgs/id_id.msg', 'DATA'),
  ('tk/msgs/cs.msg', '/usr/share/tk8.6/msgs/cs.msg', 'DATA'),
  ('tcl/msgs/fa_in.msg', '/usr/share/tcl8.6/msgs/fa_in.msg', 'DATA'),
  ('tk/tkfbox.tcl', '/usr/share/tk8.6/tkfbox.tcl', 'DATA'),
  ('tcl/msgs/es_gt.msg', '/usr/share/tcl8.6/msgs/es_gt.msg', 'DATA'),
  ('tcl/msgs/nb.msg', '/usr/share/tcl8.6/msgs/nb.msg', 'DATA'),
  ('tk/megawidget.tcl', '/usr/share/tk8.6/megawidget.tcl', 'DATA'),
  ('tcl/encoding/ebcdic.enc', '/usr/share/tcl8.6/encoding/ebcdic.enc', 'DATA'),
  ('tcl/encoding/cp1254.enc', '/usr/share/tcl8.6/encoding/cp1254.enc', 'DATA'),
  ('tcl/msgs/ar.msg', '/usr/share/tcl8.6/msgs/ar.msg', 'DATA'),
  ('tcl/msgs/zh_sg.msg', '/usr/share/tcl8.6/msgs/zh_sg.msg', 'DATA'),
  ('tk/ttk/fonts.tcl', '/usr/share/tk8.6/ttk/fonts.tcl', 'DATA'),
  ('tcl/msgs/kl_gl.msg', '/usr/share/tcl8.6/msgs/kl_gl.msg', 'DATA'),
  ('tcl/msgs/ca.msg', '/usr/share/tcl8.6/msgs/ca.msg', 'DATA'),
  ('tcl/encoding/jis0201.enc',
   '/usr/share/tcl8.6/encoding/jis0201.enc',
   'DATA'),
  ('tcl/msgs/sk.msg', '/usr/share/tcl8.6/msgs/sk.msg', 'DATA'),
  ('tcl/encoding/macGreek.enc',
   '/usr/share/tcl8.6/encoding/macGreek.enc',
   'DATA'),
  ('tcl/msgs/gl.msg', '/usr/share/tcl8.6/msgs/gl.msg', 'DATA'),
  ('tk/scale.tcl', '/usr/share/tk8.6/scale.tcl', 'DATA'),
  ('tcl/init.tcl', '/usr/share/tcl8.6/init.tcl', 'DATA'),
  ('tk/images/pwrdLogo.eps', '/usr/share/tk8.6/images/pwrdLogo.eps', 'DATA'),
  ('tcl/encoding/cp936.enc', '/usr/share/tcl8.6/encoding/cp936.enc', 'DATA'),
  ('tk/dialog.tcl', '/usr/share/tk8.6/dialog.tcl', 'DATA'),
  ('tcl/encoding/macTurkish.enc',
   '/usr/share/tcl8.6/encoding/macTurkish.enc',
   'DATA'),
  ('tcl/msgs/bg.msg', '/usr/share/tcl8.6/msgs/bg.msg', 'DATA'),
  ('tk/listbox.tcl', '/usr/share/tk8.6/listbox.tcl', 'DATA'),
  ('tk/msgs/eo.msg', '/usr/share/tk8.6/msgs/eo.msg', 'DATA'),
  ('tcl/msgs/nl_be.msg', '/usr/share/tcl8.6/msgs/nl_be.msg', 'DATA'),
  ('tcl/msgs/fo_fo.msg', '/usr/share/tcl8.6/msgs/fo_fo.msg', 'DATA'),
  ('tcl/msgs/da.msg', '/usr/share/tcl8.6/msgs/da.msg', 'DATA'),
  ('tcl/encoding/macDingbats.enc',
   '/usr/share/tcl8.6/encoding/macDingbats.enc',
   'DATA'),
  ('tk/images/tai-ku.gif', '/usr/share/tk8.6/images/tai-ku.gif', 'DATA'),
  ('tcl/encoding/jis0212.enc',
   '/usr/share/tcl8.6/encoding/jis0212.enc',
   'DATA'),
  ('tcl/encoding/cp1256.enc', '/usr/share/tcl8.6/encoding/cp1256.enc', 'DATA'),
  ('tcl/encoding/cp932.enc', '/usr/share/tcl8.6/encoding/cp932.enc', 'DATA'),
  ('tcl/msgs/ja.msg', '/usr/share/tcl8.6/msgs/ja.msg', 'DATA'),
  ('tk/msgs/pt.msg', '/usr/share/tk8.6/msgs/pt.msg', 'DATA'),
  ('tcl/encoding/cp862.enc', '/usr/share/tcl8.6/encoding/cp862.enc', 'DATA'),
  ('tcl/encoding/macThai.enc',
   '/usr/share/tcl8.6/encoding/macThai.enc',
   'DATA'),
  ('tk/images/logoLarge.gif', '/usr/share/tk8.6/images/logoLarge.gif', 'DATA'),
  ('tcl/opt0.4/optparse.tcl', '/usr/share/tcl8.6/opt0.4/optparse.tcl', 'DATA'),
  ('tk/mkpsenc.tcl', '/usr/share/tk8.6/mkpsenc.tcl', 'DATA'),
  ('tcl8/8.4/platform/shell-1.1.4.tm',
   '/usr/share/tcl8.6/../tcl8/8.4/platform/shell-1.1.4.tm',
   'DATA'),
  ('tcl/encoding/cp865.enc', '/usr/share/tcl8.6/encoding/cp865.enc', 'DATA'),
  ('tk/safetk.tcl', '/usr/share/tk8.6/safetk.tcl', 'DATA'),
  ('tcl/msgs/fo.msg', '/usr/share/tcl8.6/msgs/fo.msg', 'DATA'),
  ('tcl/msgs/ko.msg', '/usr/share/tcl8.6/msgs/ko.msg', 'DATA'),
  ('tcl/encoding/gb2312.enc', '/usr/share/tcl8.6/encoding/gb2312.enc', 'DATA'),
  ('tcl/msgs/en_bw.msg', '/usr/share/tcl8.6/msgs/en_bw.msg', 'DATA'),
  ('tcl/msgs/he.msg', '/usr/share/tcl8.6/msgs/he.msg', 'DATA'),
  ('tcl/encoding/shiftjis.enc',
   '/usr/share/tcl8.6/encoding/shiftjis.enc',
   'DATA'),
  ('tk/menu.tcl', '/usr/share/tk8.6/menu.tcl', 'DATA'),
  ('tcl/encoding/macIceland.enc',
   '/usr/share/tcl8.6/encoding/macIceland.enc',
   'DATA'),
  ('tcl8/8.6/http-2.9.1.tm',
   '/usr/share/tcl8.6/../tcl8/8.6/http-2.9.1.tm',
   'DATA'),
  ('tcl/clock.tcl', '/usr/share/tcl8.6/clock.tcl', 'DATA'),
  ('tcl/msgs/hu.msg', '/usr/share/tcl8.6/msgs/hu.msg', 'DATA'),
  ('tcl/msgs/it_ch.msg', '/usr/share/tcl8.6/msgs/it_ch.msg', 'DATA'),
  ('tcl/msgs/ru.msg', '/usr/share/tcl8.6/msgs/ru.msg', 'DATA'),
  ('tk/msgbox.tcl', '/usr/share/tk8.6/msgbox.tcl', 'DATA'),
  ('tk/msgs/de.msg', '/usr/share/tk8.6/msgs/de.msg', 'DATA'),
  ('tcl/msgs/gv.msg', '/usr/share/tcl8.6/msgs/gv.msg', 'DATA'),
  ('tcl/encoding/gb2312-raw.enc',
   '/usr/share/tcl8.6/encoding/gb2312-raw.enc',
   'DATA'),
  ('tk/ttk/sizegrip.tcl', '/usr/share/tk8.6/ttk/sizegrip.tcl', 'DATA'),
  ('tcl/encoding/cp857.enc', '/usr/share/tcl8.6/encoding/cp857.enc', 'DATA'),
  ('tcl/msgs/ga.msg', '/usr/share/tcl8.6/msgs/ga.msg', 'DATA'),
  ('tcl/msgs/es_bo.msg', '/usr/share/tcl8.6/msgs/es_bo.msg', 'DATA'),
  ('tcl/msgs/tr.msg', '/usr/share/tcl8.6/msgs/tr.msg', 'DATA'),
  ('tcl/msgs/en_in.msg', '/usr/share/tcl8.6/msgs/en_in.msg', 'DATA'),
  ('tcl/encoding/iso8859-2.enc',
   '/usr/share/tcl8.6/encoding/iso8859-2.enc',
   'DATA'),
  ('tk/tk.tcl', '/usr/share/tk8.6/tk.tcl', 'DATA'),
  ('tcl/msgs/hi_in.msg', '/usr/share/tcl8.6/msgs/hi_in.msg', 'DATA'),
  ('tk/msgs/es.msg', '/usr/share/tk8.6/msgs/es.msg', 'DATA'),
  ('tcl/encoding/iso8859-1.enc',
   '/usr/share/tcl8.6/encoding/iso8859-1.enc',
   'DATA'),
  ('tcl/encoding/gb1988.enc', '/usr/share/tcl8.6/encoding/gb1988.enc', 'DATA'),
  ('tcl/encoding/iso8859-7.enc',
   '/usr/share/tcl8.6/encoding/iso8859-7.enc',
   'DATA'),
  ('tk/msgs/sv.msg', '/usr/share/tk8.6/msgs/sv.msg', 'DATA'),
  ('tcl/encoding/cp863.enc', '/usr/share/tcl8.6/encoding/cp863.enc', 'DATA'),
  ('tk/ttk/scale.tcl', '/usr/share/tk8.6/ttk/scale.tcl', 'DATA'),
  ('tcl/encoding/iso8859-14.enc',
   '/usr/share/tcl8.6/encoding/iso8859-14.enc',
   'DATA'),
  ('tcl/msgs/kw_gb.msg', '/usr/share/tcl8.6/msgs/kw_gb.msg', 'DATA'),
  ('tcl/tm.tcl', '/usr/share/tcl8.6/tm.tcl', 'DATA'),
  ('tcl/encoding/cp855.enc', '/usr/share/tcl8.6/encoding/cp855.enc', 'DATA'),
  ('tk/images/README', '/usr/share/tk8.6/images/README', 'DATA'),
  ('tcl/encoding/cp860.enc', '/usr/share/tcl8.6/encoding/cp860.enc', 'DATA'),
  ('tk/palette.tcl', '/usr/share/tk8.6/palette.tcl', 'DATA'),
  ('tcl/msgs/es_ve.msg', '/usr/share/tcl8.6/msgs/es_ve.msg', 'DATA'),
  ('tk/ttk/entry.tcl', '/usr/share/tk8.6/ttk/entry.tcl', 'DATA'),
  ('tk/bgerror.tcl', '/usr/share/tk8.6/bgerror.tcl', 'DATA'),
  ('tcl/msgs/en_ca.msg', '/usr/share/tcl8.6/msgs/en_ca.msg', 'DATA'),
  ('tk/images/logo.eps', '/usr/share/tk8.6/images/logo.eps', 'DATA'),
  ('tcl/parray.tcl', '/usr/share/tcl8.6/parray.tcl', 'DATA'),
  ('tcl/msgs/hr.msg', '/usr/share/tcl8.6/msgs/hr.msg', 'DATA'),
  ('tcl/tclDTrace.d', '/usr/share/tcl8.6/tclDTrace.d', 'DATA'),
  ('tk/msgs/da.msg', '/usr/share/tk8.6/msgs/da.msg', 'DATA'),
  ('tk/unsupported.tcl', '/usr/share/tk8.6/unsupported.tcl', 'DATA'),
  ('tk/clrpick.tcl', '/usr/share/tk8.6/clrpick.tcl', 'DATA'),
  ('tk/tclIndex', '/usr/share/tk8.6/tclIndex', 'DATA'),
  ('tcl/encoding/cp950.enc', '/usr/share/tcl8.6/encoding/cp950.enc', 'DATA'),
  ('tcl/encoding/cp1253.enc', '/usr/share/tcl8.6/encoding/cp1253.enc', 'DATA'),
  ('tcl/encoding/cp861.enc', '/usr/share/tcl8.6/encoding/cp861.enc', 'DATA'),
  ('tcl/encoding/euc-cn.enc', '/usr/share/tcl8.6/encoding/euc-cn.enc', 'DATA'),
  ('tcl/encoding/koi8-u.enc', '/usr/share/tcl8.6/encoding/koi8-u.enc', 'DATA'),
  ('tcl/encoding/macUkraine.enc',
   '/usr/share/tcl8.6/encoding/macUkraine.enc',
   'DATA'),
  ('tk/msgs/fr.msg', '/usr/share/tk8.6/msgs/fr.msg', 'DATA'),
  ('tk/images/pwrdLogo150.gif',
   '/usr/share/tk8.6/images/pwrdLogo150.gif',
   'DATA'),
  ('tcl/encoding/iso8859-16.enc',
   '/usr/share/tcl8.6/encoding/iso8859-16.enc',
   'DATA'),
  ('tk/msgs/nl.msg', '/usr/share/tk8.6/msgs/nl.msg', 'DATA'),
  ('tcl/encoding/jis0208.enc',
   '/usr/share/tcl8.6/encoding/jis0208.enc',
   'DATA'),
  ('tcl/encoding/iso2022-kr.enc',
   '/usr/share/tcl8.6/encoding/iso2022-kr.enc',
   'DATA'),
  ('tk/console.tcl', '/usr/share/tk8.6/console.tcl', 'DATA'),
  ('tk/ttk/button.tcl', '/usr/share/tk8.6/ttk/button.tcl', 'DATA'),
  ('tcl/http1.0/pkgIndex.tcl',
   '/usr/share/tcl8.6/http1.0/pkgIndex.tcl',
   'DATA'),
  ('tcl/encoding/cp1258.enc', '/usr/share/tcl8.6/encoding/cp1258.enc', 'DATA'),
  ('tcl/msgs/ru_ua.msg', '/usr/share/tcl8.6/msgs/ru_ua.msg', 'DATA'),
  ('tcl/msgs/mt.msg', '/usr/share/tcl8.6/msgs/mt.msg', 'DATA'),
  ('tk/msgs/pl.msg', '/usr/share/tk8.6/msgs/pl.msg', 'DATA'),
  ('tk/ttk/scrollbar.tcl', '/usr/share/tk8.6/ttk/scrollbar.tcl', 'DATA'),
  ('tcl/msgs/en_za.msg', '/usr/share/tcl8.6/msgs/en_za.msg', 'DATA'),
  ('tcl/msgs/es_co.msg', '/usr/share/tcl8.6/msgs/es_co.msg', 'DATA'),
  ('tcl/encoding/ksc5601.enc',
   '/usr/share/tcl8.6/encoding/ksc5601.enc',
   'DATA'),
  ('tcl/msgs/de_at.msg', '/usr/share/tcl8.6/msgs/de_at.msg', 'DATA'),
  ('tcl/encoding/cp852.enc', '/usr/share/tcl8.6/encoding/cp852.enc', 'DATA'),
  ('tcl/msgs/ta.msg', '/usr/share/tcl8.6/msgs/ta.msg', 'DATA'),
  ('tcl/msgs/it.msg', '/usr/share/tcl8.6/msgs/it.msg', 'DATA'),
  ('tcl/encoding/cp949.enc', '/usr/share/tcl8.6/encoding/cp949.enc', 'DATA'),
  ('tcl/encoding/cp864.enc', '/usr/share/tcl8.6/encoding/cp864.enc', 'DATA'),
  ('tk/scrlbar.tcl', '/usr/share/tk8.6/scrlbar.tcl', 'DATA'),
  ('tcl/msgs/sq.msg', '/usr/share/tcl8.6/msgs/sq.msg', 'DATA'),
  ('tcl/encoding/iso8859-13.enc',
   '/usr/share/tcl8.6/encoding/iso8859-13.enc',
   'DATA'),
  ('tk/ttk/aquaTheme.tcl', '/usr/share/tk8.6/ttk/aquaTheme.tcl', 'DATA'),
  ('tcl/msgs/zh_cn.msg', '/usr/share/tcl8.6/msgs/zh_cn.msg', 'DATA'),
  ('tcl/msgs/ar_lb.msg', '/usr/share/tcl8.6/msgs/ar_lb.msg', 'DATA'),
  ('tcl/msgs/sr.msg', '/usr/share/tcl8.6/msgs/sr.msg', 'DATA'),
  ('tcl/msgs/gl_es.msg', '/usr/share/tcl8.6/msgs/gl_es.msg', 'DATA'),
  ('tk/images/pwrdLogo200.gif',
   '/usr/share/tk8.6/images/pwrdLogo200.gif',
   'DATA'),
  ('tcl/encoding/iso8859-8.enc',
   '/usr/share/tcl8.6/encoding/iso8859-8.enc',
   'DATA'),
  ('tcl/encoding/iso8859-3.enc',
   '/usr/share/tcl8.6/encoding/iso8859-3.enc',
   'DATA'),
  ('tcl/msgs/en_ie.msg', '/usr/share/tcl8.6/msgs/en_ie.msg', 'DATA'),
  ('tk/ttk/progress.tcl', '/usr/share/tk8.6/ttk/progress.tcl', 'DATA'),
  ('tcl/msgs/fr_ca.msg', '/usr/share/tcl8.6/msgs/fr_ca.msg', 'DATA'),
  ('tcl/safe.tcl', '/usr/share/tcl8.6/safe.tcl', 'DATA'),
  ('tk/images/pwrdLogo175.gif',
   '/usr/share/tk8.6/images/pwrdLogo175.gif',
   'DATA'),
  ('tk/images/pwrdLogo100.gif',
   '/usr/share/tk8.6/images/pwrdLogo100.gif',
   'DATA'),
  ('tcl/encoding/ascii.enc', '/usr/share/tcl8.6/encoding/ascii.enc', 'DATA'),
  ('tcl/msgs/hi.msg', '/usr/share/tcl8.6/msgs/hi.msg', 'DATA'),
  ('tk/icons.tcl', '/usr/share/tk8.6/icons.tcl', 'DATA'),
  ('tcl/msgs/es_py.msg', '/usr/share/tcl8.6/msgs/es_py.msg', 'DATA'),
  ('tcl/msgs/lt.msg', '/usr/share/tcl8.6/msgs/lt.msg', 'DATA'),
  ('tk/ttk/menubutton.tcl', '/usr/share/tk8.6/ttk/menubutton.tcl', 'DATA'),
  ('tcl/msgs/en_ph.msg', '/usr/share/tcl8.6/msgs/en_ph.msg', 'DATA'),
  ('tk/tearoff.tcl', '/usr/share/tk8.6/tearoff.tcl', 'DATA'),
  ('tk/ttk/panedwindow.tcl', '/usr/share/tk8.6/ttk/panedwindow.tcl', 'DATA'),
  ('tcl/msgs/kw.msg', '/usr/share/tcl8.6/msgs/kw.msg', 'DATA'),
  ('tcl/msgs/ro.msg', '/usr/share/tcl8.6/msgs/ro.msg', 'DATA'),
  ('tk/comdlg.tcl', '/usr/share/tk8.6/comdlg.tcl', 'DATA'),
  ('tcl/encoding/iso2022-jp.enc',
   '/usr/share/tcl8.6/encoding/iso2022-jp.enc',
   'DATA'),
  ('tcl/msgs/en_gb.msg', '/usr/share/tcl8.6/msgs/en_gb.msg', 'DATA'),
  ('tcl/encoding/cp850.enc', '/usr/share/tcl8.6/encoding/cp850.enc', 'DATA'),
  ('tcl/encoding/cp1252.enc', '/usr/share/tcl8.6/encoding/cp1252.enc', 'DATA'),
  ('tcl/msgs/sl.msg', '/usr/share/tcl8.6/msgs/sl.msg', 'DATA'),
  ('tcl/msgs/ms_my.msg', '/usr/share/tcl8.6/msgs/ms_my.msg', 'DATA'),
  ('tcl/tclIndex', '/usr/share/tcl8.6/tclIndex', 'DATA'),
  ('tcl/msgs/nn.msg', '/usr/share/tcl8.6/msgs/nn.msg', 'DATA'),
  ('tcl/msgs/es.msg', '/usr/share/tcl8.6/msgs/es.msg', 'DATA'),
  ('tcl/msgs/mr.msg', '/usr/share/tcl8.6/msgs/mr.msg', 'DATA'),
  ('tcl/encoding/cp1251.enc', '/usr/share/tcl8.6/encoding/cp1251.enc', 'DATA'),
  ('tk/images/pwrdLogo75.gif',
   '/usr/share/tk8.6/images/pwrdLogo75.gif',
   'DATA'),
  ('tcl/encoding/macJapan.enc',
   '/usr/share/tcl8.6/encoding/macJapan.enc',
   'DATA'),
  ('tcl/encoding/cp737.enc', '/usr/share/tcl8.6/encoding/cp737.enc', 'DATA'),
  ('tcl/encoding/cp1257.enc', '/usr/share/tcl8.6/encoding/cp1257.enc', 'DATA'),
  ('tcl/encoding/symbol.enc', '/usr/share/tcl8.6/encoding/symbol.enc', 'DATA'),
  ('tk/msgs/hu.msg', '/usr/share/tk8.6/msgs/hu.msg', 'DATA'),
  ('tcl/encoding/cp869.enc', '/usr/share/tcl8.6/encoding/cp869.enc', 'DATA'),
  ('tk/msgs/ru.msg', '/usr/share/tk8.6/msgs/ru.msg', 'DATA'),
  ('tcl/msgs/ko_kr.msg', '/usr/share/tcl8.6/msgs/ko_kr.msg', 'DATA'),
  ('tcl/encoding/iso8859-9.enc',
   '/usr/share/tcl8.6/encoding/iso8859-9.enc',
   'DATA'),
  ('tk/ttk/altTheme.tcl', '/usr/share/tk8.6/ttk/altTheme.tcl', 'DATA'),
  ('tcl/msgs/es_sv.msg', '/usr/share/tcl8.6/msgs/es_sv.msg', 'DATA'),
  ('tcl/encoding/macRoman.enc',
   '/usr/share/tcl8.6/encoding/macRoman.enc',
   'DATA'),
  ('tcl/msgs/es_pa.msg', '/usr/share/tcl8.6/msgs/es_pa.msg', 'DATA'),
  ('tcl/msgs/nl.msg', '/usr/share/tcl8.6/msgs/nl.msg', 'DATA'),
  ('tk/ttk/spinbox.tcl', '/usr/share/tk8.6/ttk/spinbox.tcl', 'DATA'),
  ('tcl/msgs/bn.msg', '/usr/share/tcl8.6/msgs/bn.msg', 'DATA'),
  ('tcl/msgs/kl.msg', '/usr/share/tcl8.6/msgs/kl.msg', 'DATA'),
  ('tcl/msgs/es_cl.msg', '/usr/share/tcl8.6/msgs/es_cl.msg', 'DATA'),
  ('tcl/encoding/euc-kr.enc', '/usr/share/tcl8.6/encoding/euc-kr.enc', 'DATA'),
  ('tcl/history.tcl', '/usr/share/tcl8.6/history.tcl', 'DATA'),
  ('tcl/encoding/gb12345.enc',
   '/usr/share/tcl8.6/encoding/gb12345.enc',
   'DATA'),
  ('tcl/msgs/ar_sy.msg', '/usr/share/tcl8.6/msgs/ar_sy.msg', 'DATA'),
  ('tcl/msgs/ta_in.msg', '/usr/share/tcl8.6/msgs/ta_in.msg', 'DATA'),
  ('tcl/encoding/iso8859-4.enc',
   '/usr/share/tcl8.6/encoding/iso8859-4.enc',
   'DATA'),
  ('tcl/encoding/cp437.enc', '/usr/share/tcl8.6/encoding/cp437.enc', 'DATA'),
  ('tk/msgs/en.msg', '/usr/share/tk8.6/msgs/en.msg', 'DATA'),
  ('tk/xmfbox.tcl', '/usr/share/tk8.6/xmfbox.tcl', 'DATA'),
  ('tk/ttk/clamTheme.tcl', '/usr/share/tk8.6/ttk/clamTheme.tcl', 'DATA'),
  ('tk/ttk/xpTheme.tcl', '/usr/share/tk8.6/ttk/xpTheme.tcl', 'DATA'),
  ('tcl/msgs/es_do.msg', '/usr/share/tcl8.6/msgs/es_do.msg', 'DATA'),
  ('tcl/msgs/uk.msg', '/usr/share/tcl8.6/msgs/uk.msg', 'DATA'),
  ('tk/iconlist.tcl', '/usr/share/tk8.6/iconlist.tcl', 'DATA'),
  ('tcl/msgs/en_be.msg', '/usr/share/tcl8.6/msgs/en_be.msg', 'DATA'),
  ('tcl/msgs/pt.msg', '/usr/share/tcl8.6/msgs/pt.msg', 'DATA'),
  ('tcl/encoding/macCyrillic.enc',
   '/usr/share/tcl8.6/encoding/macCyrillic.enc',
   'DATA'),
  ('tcl/msgs/af.msg', '/usr/share/tcl8.6/msgs/af.msg', 'DATA'),
  ('tcl/msgs/mk.msg', '/usr/share/tcl8.6/msgs/mk.msg', 'DATA'),
  ('tcl/msgs/fa.msg', '/usr/share/tcl8.6/msgs/fa.msg', 'DATA'),
  ('tcl/msgs/pl.msg', '/usr/share/tcl8.6/msgs/pl.msg', 'DATA'),
  ('tk/fontchooser.tcl', '/usr/share/tk8.6/fontchooser.tcl', 'DATA'),
  ('tk/images/logo100.gif', '/usr/share/tk8.6/images/logo100.gif', 'DATA'),
  ('tcl/msgs/te_in.msg', '/usr/share/tcl8.6/msgs/te_in.msg', 'DATA'),
  ('tcl/msgs/es_hn.msg', '/usr/share/tcl8.6/msgs/es_hn.msg', 'DATA'),
  ('tcl/msgs/bn_in.msg', '/usr/share/tcl8.6/msgs/bn_in.msg', 'DATA'),
  ('tcl/encoding/cp775.enc', '/usr/share/tcl8.6/encoding/cp775.enc', 'DATA'),
  ('tcl/msgs/en_au.msg', '/usr/share/tcl8.6/msgs/en_au.msg', 'DATA'),
  ('tk/images/logoMed.gif', '/usr/share/tk8.6/images/logoMed.gif', 'DATA'),
  ('tk/focus.tcl', '/usr/share/tk8.6/focus.tcl', 'DATA'),
  ('tcl/msgs/en_nz.msg', '/usr/share/tcl8.6/msgs/en_nz.msg', 'DATA'),
  ('tcl/msgs/zh.msg', '/usr/share/tcl8.6/msgs/zh.msg', 'DATA'),
  ('tcl/msgs/gv_gb.msg', '/usr/share/tcl8.6/msgs/gv_gb.msg', 'DATA'),
  ('tcl/encoding/iso8859-10.enc',
   '/usr/share/tcl8.6/encoding/iso8859-10.enc',
   'DATA'),
  ('tcl/msgs/be.msg', '/usr/share/tcl8.6/msgs/be.msg', 'DATA'),
  ('tcl/msgs/fr.msg', '/usr/share/tcl8.6/msgs/fr.msg', 'DATA'),
  ('tcl/msgs/kok_in.msg', '/usr/share/tcl8.6/msgs/kok_in.msg', 'DATA'),
  ('tcl/msgs/eo.msg', '/usr/share/tcl8.6/msgs/eo.msg', 'DATA'),
  ('tk/msgs/it.msg', '/usr/share/tk8.6/msgs/it.msg', 'DATA'),
  ('tcl/msgs/pt_br.msg', '/usr/share/tcl8.6/msgs/pt_br.msg', 'DATA'),
  ('tcl/msgs/af_za.msg', '/usr/share/tcl8.6/msgs/af_za.msg', 'DATA'),
  ('tk/images/logo64.gif', '/usr/share/tk8.6/images/logo64.gif', 'DATA'),
  ('tcl/encoding/iso8859-15.enc',
   '/usr/share/tcl8.6/encoding/iso8859-15.enc',
   'DATA'),
  ('tcl/msgs/de.msg', '/usr/share/tcl8.6/msgs/de.msg', 'DATA'),
  ('tcl/encoding/iso8859-6.enc',
   '/usr/share/tcl8.6/encoding/iso8859-6.enc',
   'DATA'),
  ('tk/ttk/treeview.tcl', '/usr/share/tk8.6/ttk/treeview.tcl', 'DATA'),
  ('tcl8/8.4/platform-1.0.14.tm',
   '/usr/share/tcl8.6/../tcl8/8.4/platform-1.0.14.tm',
   'DATA'),
  ('tcl/msgs/fr_be.msg', '/usr/share/tcl8.6/msgs/fr_be.msg', 'DATA'),
  ('tcl/msgs/de_be.msg', '/usr/share/tcl8.6/msgs/de_be.msg', 'DATA'),
  ('tcl/msgs/ms.msg', '/usr/share/tcl8.6/msgs/ms.msg', 'DATA'),
  ('tcl/msgs/ga_ie.msg', '/usr/share/tcl8.6/msgs/ga_ie.msg', 'DATA'),
  ('tcl/msgs/te.msg', '/usr/share/tcl8.6/msgs/te.msg', 'DATA'),
  ('tcl/msgs/es_ar.msg', '/usr/share/tcl8.6/msgs/es_ar.msg', 'DATA'),
  ('tcl/msgs/sw.msg', '/usr/share/tcl8.6/msgs/sw.msg', 'DATA'),
  ('tcl8/8.5/msgcat-1.6.1.tm',
   '/usr/share/tcl8.6/../tcl8/8.5/msgcat-1.6.1.tm',
   'DATA'),
  ('tcl/msgs/es_ec.msg', '/usr/share/tcl8.6/msgs/es_ec.msg', 'DATA'),
  ('tcl/msgs/es_pr.msg', '/usr/share/tcl8.6/msgs/es_pr.msg', 'DATA'),
  ('tk/msgs/en_gb.msg', '/usr/share/tk8.6/msgs/en_gb.msg', 'DATA'),
  ('tk/spinbox.tcl', '/usr/share/tk8.6/spinbox.tcl', 'DATA'),
  ('tcl/opt0.4/pkgIndex.tcl', '/usr/share/tcl8.6/opt0.4/pkgIndex.tcl', 'DATA'),
  ('tk/entry.tcl', '/usr/share/tk8.6/entry.tcl', 'DATA'),
  ('tk/optMenu.tcl', '/usr/share/tk8.6/optMenu.tcl', 'DATA'),
  ('tcl/package.tcl', '/usr/share/tcl8.6/package.tcl', 'DATA'),
  ('tcl/msgs/es_mx.msg', '/usr/share/tcl8.6/msgs/es_mx.msg', 'DATA'),
  ('tk/ttk/utils.tcl', '/usr/share/tk8.6/ttk/utils.tcl', 'DATA'),
  ('tcl/encoding/cp1255.enc', '/usr/share/tcl8.6/encoding/cp1255.enc', 'DATA'),
  ('tcl/encoding/macCroatian.enc',
   '/usr/share/tcl8.6/encoding/macCroatian.enc',
   'DATA'),
  ('tcl/http1.0/http.tcl', '/usr/share/tcl8.6/http1.0/http.tcl', 'DATA'),
  ('tk/obsolete.tcl', '/usr/share/tk8.6/obsolete.tcl', 'DATA'),
  ('tcl/msgs/fr_ch.msg', '/usr/share/tcl8.6/msgs/fr_ch.msg', 'DATA'),
  ('tcl/msgs/es_cr.msg', '/usr/share/tcl8.6/msgs/es_cr.msg', 'DATA'),
  ('tcl/msgs/kok.msg', '/usr/share/tcl8.6/msgs/kok.msg', 'DATA'),
  ('tcl/encoding/big5.enc', '/usr/share/tcl8.6/encoding/big5.enc', 'DATA'),
  ('tk/choosedir.tcl', '/usr/share/tk8.6/choosedir.tcl', 'DATA'),
  ('tcl/encoding/macRomania.enc',
   '/usr/share/tcl8.6/encoding/macRomania.enc',
   'DATA'),
  ('tk/ttk/notebook.tcl', '/usr/share/tk8.6/ttk/notebook.tcl', 'DATA'),
  ('tk/panedwindow.tcl', '/usr/share/tk8.6/panedwindow.tcl', 'DATA'),
  ('tcl8/8.5/tcltest-2.5.1.tm',
   '/usr/share/tcl8.6/../tcl8/8.5/tcltest-2.5.1.tm',
   'DATA'),
  ('tcl/msgs/eu_es.msg', '/usr/share/tcl8.6/msgs/eu_es.msg', 'DATA'),
  ('tcl/msgs/es_ni.msg', '/usr/share/tcl8.6/msgs/es_ni.msg', 'DATA'),
  ('tcl/msgs/et.msg', '/usr/share/tcl8.6/msgs/et.msg', 'DATA'),
  ('tcl/msgs/eu.msg', '/usr/share/tcl8.6/msgs/eu.msg', 'DATA'),
  ('tcl/msgs/sv.msg', '/usr/share/tcl8.6/msgs/sv.msg', 'DATA'),
  ('tk/ttk/cursors.tcl', '/usr/share/tk8.6/ttk/cursors.tcl', 'DATA'),
  ('tk/ttk/ttk.tcl', '/usr/share/tk8.6/ttk/ttk.tcl', 'DATA')],
 [],
 False,
 False,
 1645747367,
 [('run',
   '/home/miguel/.local/lib/python3.9/site-packages/PyInstaller/bootloader/Linux-64bit-intel/run',
   'EXECUTABLE')])
